<svg width="51" height="52" viewBox="0 0 51 52" fill="none" xmlns="http://www.w3.org/2000/svg">
<path d="M25.6346 23.4569C24.508 23.7595 23.8456 24.9096 24.1474 26.0389C24.4493 27.1681 25.5967 27.8321 26.7232 27.5295C27.8498 27.2269 28.5122 26.0768 28.2104 24.9476C27.9085 23.8184 26.7611 23.1544 25.6346 23.4569ZM21.2305 6.98142C11.0362 9.71947 4.97946 20.2349 7.71101 30.4535C10.4426 40.672 20.9331 46.7431 31.1274 44.005C41.3217 41.267 47.3784 30.7515 44.6468 20.533C41.9153 10.3145 31.4247 4.24338 21.2305 6.98142ZM31.3071 28.461L18.0672 39.5764L21.0507 22.5254L34.2906 11.41L31.3071 28.461Z" fill="#D4D4D4"/>
<path d="M41.4302 3.49169L40.4268 2.911C40.4727 2.60122 40.4161 2.31619 40.257 2.0559C40.1083 1.7928 39.8882 1.57693 39.5968 1.40828C39.1994 1.1783 38.7714 1.11648 38.3127 1.22283C37.8541 1.32918 37.4871 1.62136 37.2118 2.09936C36.9288 2.59064 36.8527 3.06002 36.9836 3.5075C37.1248 3.95218 37.3908 4.28759 37.7816 4.51374C38.0664 4.67855 38.3668 4.75501 38.6827 4.74311C39.0091 4.7284 39.3075 4.60898 39.5779 4.38483L40.6111 4.98277C40.1592 5.49136 39.6196 5.77659 38.9923 5.83845C38.3754 5.8975 37.7855 5.76412 37.2226 5.43832C36.5404 5.04353 36.0738 4.48139 35.8228 3.75192C35.5823 3.01964 35.6876 2.26181 36.1388 1.47842C36.4409 0.953945 36.8306 0.568688 37.3079 0.322646C37.7852 0.0766043 38.2609 -0.0287186 38.735 0.00667761C39.213 0.0354346 39.6692 0.171065 40.1035 0.413569C40.6637 0.728899 41.071 1.16383 41.3256 1.71836C41.5907 2.27009 41.6255 2.8612 41.4302 3.49169Z" fill="#D4D4D4"/>
<path d="M17.5932 50.5223C17.1343 51.3189 16.527 51.7907 15.7713 51.9376C15.0222 52.0882 14.3065 51.9662 13.6244 51.5714C12.9952 51.2073 12.5473 50.7047 12.2807 50.0635C12.018 49.4158 12.0386 48.7284 12.3425 48.0014L11.4484 47.484L10.2898 49.4956L9.2367 48.8861L12.0014 44.0862L13.0544 44.6956L11.9933 46.5379L12.9172 47.0726C13.3893 46.5137 13.9579 46.2011 14.6232 46.1346C15.2989 46.0654 15.9381 46.2051 16.5408 46.5539C17.2192 46.9554 17.6753 47.5203 17.9092 48.2488C18.1498 48.981 18.0444 49.7389 17.5932 50.5223ZM13.6094 48.2167C13.3302 48.7014 13.2561 49.1674 13.3869 49.6149C13.5215 50.0558 13.7861 50.3859 14.1807 50.6054C14.5649 50.8278 14.9777 50.8852 15.4193 50.7779C15.8609 50.6705 16.2212 50.3745 16.5004 49.8898C16.7795 49.4052 16.8551 48.9444 16.7271 48.5073C16.6057 48.0742 16.3515 47.7412 15.9646 47.5084C15.5738 47.2823 15.1543 47.221 14.7061 47.3245C14.2579 47.428 13.8924 47.7255 13.6094 48.2167Z" fill="#D4D4D4"/>
<path d="M2.15727 11.0414L2.55079 10.2202C3.15972 10.2362 3.81852 10.4493 4.5272 10.8594C4.8716 11.0587 5.15663 11.2768 5.3823 11.5136C5.61178 11.7438 5.76329 12.0174 5.83682 12.3343C5.9208 12.6485 5.87102 12.9649 5.68747 13.2836C5.54216 13.5358 5.35166 13.7133 5.11595 13.8159C4.89069 13.9157 4.63641 13.9278 4.35311 13.8524C4.62514 14.1161 4.79269 14.4078 4.85578 14.7275C4.91886 15.0473 4.85863 15.3665 4.67509 15.6852C4.38829 16.1831 3.97406 16.4347 3.43239 16.4398C2.89072 16.445 2.32515 16.2771 1.73569 15.9359C0.92767 15.4683 0.349105 14.9166 0 14.2808L0.587303 13.3992C0.680228 13.6211 0.876837 13.8854 1.17713 14.1919C1.48404 14.5023 1.79123 14.7509 2.0987 14.9377C2.84049 15.367 3.3414 15.3559 3.60142 14.9045C3.68937 14.7518 3.72369 14.6079 3.70436 14.4728C3.69549 14.3349 3.63629 14.2077 3.52678 14.0912C3.41726 13.9747 3.30811 13.8805 3.19934 13.8087C3.0944 13.7303 2.95913 13.6432 2.79355 13.5474L2.08819 13.1391L2.51838 12.3923L3.17407 12.7717C3.36614 12.8829 3.52752 12.963 3.65821 13.0121C3.78889 13.0612 3.93208 13.0732 4.08776 13.0482C4.24726 13.0166 4.37673 12.9145 4.47615 12.7419C4.7094 12.3369 4.50481 11.9485 3.86236 11.5767C3.61731 11.4349 3.33186 11.3095 3.00603 11.2006C2.6802 11.0917 2.39728 11.0387 2.15727 11.0414Z" fill="#D4D4D4"/>
<path d="M50.8005 39.4445C50.5175 39.9357 50.1135 40.1312 49.5884 40.0309C49.834 40.2793 49.9731 40.559 50.0059 40.87C50.0387 41.1811 49.9709 41.4827 49.8027 41.7748C49.665 42.0138 49.5034 42.1947 49.3179 42.3175C49.1324 42.4403 48.9447 42.5131 48.7549 42.536C48.5755 42.5562 48.3693 42.5386 48.1362 42.4834C47.9135 42.4253 47.7122 42.3531 47.5324 42.2667C47.3592 42.1842 47.1633 42.0797 46.9447 41.9532L44.8385 40.7343L47.6147 35.9145L49.4526 36.9781C49.6712 37.1046 49.8528 37.2186 49.9975 37.32C50.1526 37.4186 50.3195 37.5506 50.498 37.7159C50.6832 37.885 50.8138 38.0491 50.89 38.2083C50.9661 38.3674 51.0027 38.5568 50.9998 38.7764C51.0008 38.9894 50.9343 39.2121 50.8005 39.4445ZM46.3734 40.5072L47.3172 41.0534C47.4828 41.1493 47.6139 41.2207 47.7104 41.2677C47.807 41.3147 47.931 41.36 48.0826 41.4034C48.238 41.4403 48.3756 41.4314 48.4954 41.3768C48.619 41.3155 48.7247 41.2085 48.8127 41.0558C48.8968 40.9098 48.9292 40.7692 48.9099 40.6341C48.901 40.4962 48.8399 40.3723 48.7266 40.2624C48.617 40.1459 48.5098 40.0485 48.4049 39.97C48.3065 39.8954 48.1779 39.8121 48.019 39.7201L47.1248 39.2027L46.3734 40.5072ZM47.5493 38.4658L48.3937 38.9545C49.0296 39.3224 49.4564 39.3172 49.6744 38.9388C49.8962 38.5537 49.6892 38.1772 49.0533 37.8093L48.2089 37.3206L47.5493 38.4658Z" fill="#D4D4D4"/>
</svg>
