<svg width="665" height="277" viewBox="0 0 665 277" fill="none" xmlns="http://www.w3.org/2000/svg">
<path d="M332.5 277C262.545 277 193.454 257.397 134.727 220.748C76.8634 184.951 30.2273 134.665 0 75.0031L148.545 0C183.954 69.0369 254.773 111.652 332.5 111.652C411.091 111.652 481.045 69.0369 516.454 0L665 75.0031C633.909 134.665 587.272 184.951 530.272 220.748C470.682 257.397 402.455 277 332.5 277Z" fill="#F15A26"/>
</svg>
