<?xml version="1.0" encoding="UTF-8" ?>
<!DOCTYPE svg PUBLIC "-//W3C//DTD SVG 1.1//EN" "http://www.w3.org/Graphics/SVG/1.1/DTD/svg11.dtd">
<svg width="301pt" height="512pt" viewBox="0 0 301 512" version="1.1" xmlns="http://www.w3.org/2000/svg">
<g id="#ffffffff">
<path fill="#ffffff" opacity="1.00" d=" M 135.50 0.00 L 165.62 0.00 C 165.61 150.58 165.64 301.16 165.61 451.74 C 197.82 427.75 229.84 403.51 262.05 379.52 C 268.05 387.57 274.13 395.56 280.10 403.64 C 236.90 435.93 193.77 468.31 150.65 500.70 C 107.39 468.42 64.34 435.85 21.03 403.63 C 27.14 395.62 33.06 387.46 39.23 379.51 C 71.28 403.66 103.46 427.64 135.51 451.80 C 135.48 301.20 135.51 150.60 135.50 0.00 Z" />
</g>
</svg>
