<?xml version="1.0" encoding="UTF-8" ?>
<!DOCTYPE svg PUBLIC "-//W3C//DTD SVG 1.1//EN" "http://www.w3.org/Graphics/SVG/1.1/DTD/svg11.dtd">
<svg width="512pt" height="142pt" viewBox="0 0 512 142" version="1.1" xmlns="http://www.w3.org/2000/svg">
<g id="#ffffffff">
<path fill="#ffffff" opacity="1.00" d=" M 460.79 9.92 C 476.08 30.31 491.36 50.71 506.67 71.09 C 491.45 91.50 476.04 111.77 460.91 132.24 C 456.99 129.48 453.17 126.58 449.39 123.63 C 462.69 106.22 475.73 88.61 488.88 71.09 C 475.72 53.56 462.59 36.02 449.43 18.50 C 453.20 15.62 457.04 12.84 460.79 9.92 Z" />
<path fill="#ffffff" opacity="1.00" d=" M 0.00 64.00 C 161.16 64.00 322.33 63.99 483.49 64.00 C 483.51 68.74 483.50 73.48 483.49 78.22 C 322.33 78.30 161.16 78.23 0.00 78.25 L 0.00 64.00 Z" />
</g>
</svg>
