<svg width="28" height="27" viewBox="0 0 28 27" fill="none" xmlns="http://www.w3.org/2000/svg">
<rect x="1" y="22.6274" width="32" height="5" transform="rotate(-45 1 22.6274)" fill="white"/>
<rect x="4.4541" y="0.418518" width="32" height="5" transform="rotate(45 4.4541 0.418518)" fill="white"/>
</svg>
