<?xml version="1.0" encoding="UTF-8" ?>
<!DOCTYPE svg PUBLIC "-//W3C//DTD SVG 1.1//EN" "http://www.w3.org/Graphics/SVG/1.1/DTD/svg11.dtd">
<svg width="226pt" height="512pt" viewBox="0 0 226 512" version="1.1" xmlns="http://www.w3.org/2000/svg">
<g id="#ffffffff">
<path fill="#ffffff" opacity="1.00" d=" M 111.41 0.00 L 113.72 0.00 C 119.21 0.86 124.86 3.10 128.43 7.54 C 157.48 37.14 186.73 66.56 215.76 96.18 C 218.49 99.15 222.00 101.74 223.22 105.77 C 225.83 112.59 222.73 120.88 216.41 124.47 C 210.83 127.58 204.24 127.85 198.01 127.99 C 180.34 128.01 162.67 127.99 145.00 128.00 C 145.00 213.33 145.00 298.67 145.00 384.00 C 164.03 384.10 183.06 383.80 202.08 384.15 C 210.57 384.20 219.40 387.81 224.04 395.18 C 226.24 398.33 225.59 402.31 225.61 405.93 C 225.45 410.81 221.45 414.09 218.25 417.25 C 188.34 446.34 158.40 475.42 128.49 504.52 C 124.98 508.93 119.43 510.94 114.07 512.00 L 109.68 512.00 C 105.62 511.76 101.97 509.62 99.27 506.66 C 67.93 475.33 36.44 444.16 4.95 412.98 C 2.64 410.91 1.04 408.19 0.00 405.29 L 0.00 396.83 C 1.19 392.61 4.15 388.92 8.18 387.13 C 14.37 384.33 21.34 384.13 28.02 384.00 C 45.56 383.99 63.09 384.02 80.63 383.99 C 80.62 298.66 80.62 213.34 80.63 128.01 C 62.74 127.98 44.85 128.02 26.96 127.99 C 19.69 127.95 12.02 127.32 5.77 123.21 C 2.71 121.61 1.19 118.34 0.00 115.28 L 0.00 106.83 C 1.60 100.85 7.08 97.36 11.01 93.00 C 40.73 63.71 70.27 34.23 99.85 4.79 C 103.20 2.26 107.34 0.90 111.41 0.00 Z" />
</g>
</svg>
