<svg width="22" height="30" viewBox="0 0 22 30" fill="none" xmlns="http://www.w3.org/2000/svg">
<path d="M11 16.3563C7.8806 16.3563 5.41791 13.9271 5.41791 10.8502C5.41791 7.77328 7.8806 5.34413 11 5.34413C14.1194 5.34413 16.5821 7.77328 16.5821 10.8502C16.5821 13.9271 14.1194 16.3563 11 16.3563ZM11 0C4.92537 0 0 4.8583 0 10.8502C0 18.2996 9.85075 29.1498 10.1791 29.6356C10.5075 30.1215 11.3284 30.1215 11.6567 29.6356C12.1493 29.1498 21.8358 18.2996 21.8358 10.8502C22 4.8583 17.0746 0 11 0Z" fill="#B2D235"/>
<path d="M18.3879 10.8501C18.3879 14.7368 15.1043 17.9756 10.9999 17.9756C6.89538 17.9756 3.6118 14.7368 3.6118 10.8501C3.6118 6.96348 6.89538 3.72461 10.9999 3.72461C15.1043 3.72461 18.3879 6.96348 18.3879 10.8501Z" fill="white"/>
<path d="M13.7911 9.87891H12.6418V11.3364H11.3284V12.47H12.6418V13.7655H13.7911V12.47H15.2687V11.3364H13.7911V9.87891Z" fill="#B2D235"/>
<path d="M10.6717 10.6884H11.9851V9.23091H14.4478V10.5265H15.1045C15.4329 10.2026 15.4329 9.71674 15.4329 9.23091C15.4329 7.77342 14.2837 6.80176 12.9702 6.80176C12.1493 6.80176 11.3284 7.28759 11.0001 7.77342C10.5075 7.28759 9.85081 6.80176 9.02992 6.80176C7.71648 6.80176 6.56723 7.93536 6.56723 9.23091C6.56723 9.87868 6.73141 10.3645 7.05977 10.8503L11.0001 15.7086L11.9851 14.4131V13.1175H10.6717V10.6884Z" fill="#B2D235"/>
</svg>
